{
  "cli": {
    "version": ">= 5.9.2",
    "appVersionSource": "remote"
  },
  "build": {
    "development": {
      "developmentClient": true,
      "distribution": "internal"
    },
    "preview": {
      "distribution": "internal"
    },
    "production": {
         "autoIncrement": true
    }
  },
  "submit": {
    "production": {}
  }
}
